[
  {
    "movieId": 1,
    "relativePath": "Bar.Movie.1980.WEB-DL.x265.HEVC-RELEASER.mkv",
    "path": "/media/Library/Videos/Movies/Bar Movie (1980) [tmdbid-1]/Bar.Movie.1980.WEB-DL.x265.HEVC-RELEASER.mkv",
    "size": 1073741824,
    "dateAdded": "2010-01-07T00:00:00Z",
    "sceneName": "Bar.Movie.1980.WEB-DL.x265.HEVC-RELEASER",
    "releaseGroup": "RELEASER",
    "edition": "",
    "languages": [
      {
        "id": 1,
        "name": "English"
      }
    ],
    "quality": {
      "quality": {
        "id": 1,
        "name": "WEBDL-480p",
        "source": "web",
        "resolution": 480
      },
      "revision": {
        "version": 1,
        "real": 0,
        "isRepack": false
      }
    },
    "customFormats": [],
    "customFormatScore": 0,
    "indexerFlags": 0,
    "mediaInfo": {},
    "originalFilePath": "Bar.Movie.1980.WEB-DL.x265.HEVC-RELEASER.mkv",
    "qualityCutoffNotMet": false,
    "popularity": 66.667,
    "statistics": {
      "movieFileCount": 1,
      "sizeOnDisk": 1073741824,
      "releaseGroups": ["RELEASER"]
    },
    "id": 1
  }
]
