{
  "arguments": {
    "alt-speed-down": 100,
    "alt-speed-enabled": false,
    "alt-speed-time-begin": 540,
    "alt-speed-time-day": 127,
    "alt-speed-time-enabled": false,
    "alt-speed-time-end": 1020,
    "alt-speed-up": 9600,
    "blocklist-enabled": true,
    "blocklist-size": 227209,
    "blocklist-url": "http://list.iblocklist.com/?list=bt_level1&fileformat=p2p&archiveformat=gz",
    "cache-size-mb": 4,
    "config-dir": "/config",
    "dht-enabled": true,
    "download-dir": "/media/Library/downloads",
    "download-dir-free-space": 6291455000,
    "download-queue-enabled": false,
    "download-queue-size": 5,
    "encryption": "tolerated",
    "idle-seeding-limit": 30,
    "idle-seeding-limit-enabled": false,
    "incomplete-dir": "/media/Library/incomplete",
    "incomplete-dir-enabled": true,
    "lpd-enabled": true,
    "peer-limit-global": 1200,
    "peer-limit-per-torrent": 288,
    "peer-port": 32331,
    "peer-port-random-on-start": false,
    "pex-enabled": true,
    "port-forwarding-enabled": false,
    "queue-stalled-enabled": true,
    "queue-stalled-minutes": 30,
    "rename-partial-files": false,
    "rpc-version": 16,
    "rpc-version-minimum": 1,
    "script-torrent-done-enabled": false,
    "script-torrent-done-filename": "/usr/local/bin/transmission-done",
    "seed-queue-enabled": false,
    "seed-queue-size": 10,
    "seedRatioLimit": 4,
    "seedRatioLimited": false,
    "session-id": "************************************************",
    "speed-limit-down": 0,
    "speed-limit-down-enabled": true,
    "speed-limit-up": 10240,
    "speed-limit-up-enabled": false,
    "start-added-torrents": true,
    "trash-original-torrent-files": false,
    "units": {
      "memory-bytes": 1024,
      "memory-units": ["KiB", "MiB", "GiB", "TiB"],
      "size-bytes": 1000,
      "size-units": ["kB", "MB", "GB", "TB"],
      "speed-bytes": 1000,
      "speed-units": ["kB/s", "MB/s", "GB/s", "TB/s"]
    },
    "utp-enabled": true,
    "version": "3.00 (bb6b5a062e)"
  },
  "result": "success"
}
