[
  {
    "seriesId": 1,
    "tvdbId": 0,
    "episodeFileId": 1,
    "seasonNumber": 1,
    "episodeNumber": 1,
    "title": "Corge Episode Title",
    "airDate": "2020-06-05",
    "airDateUtc": "1970-03-31T00:00:00Z",
    "runtime": 22,
    "overview": "This is the Corge Episode Title overview.",
    "hasFile": true,
    "monitored": true,
    "absoluteEpisodeNumber": 1,
    "unverifiedSceneNumbering": false,
    "id": 1
  },
  {
    "seriesId": 1,
    "tvdbId": 0,
    "episodeFileId": 2,
    "seasonNumber": 1,
    "episodeNumber": 2,
    "title": "Grault Episode Title",
    "airDate": "2020-06-05",
    "airDateUtc": "1970-03-31T00:00:00Z",
    "runtime": 22,
    "overview": "This is the Grault Episode Title overview.",
    "hasFile": true,
    "monitored": true,
    "absoluteEpisodeNumber": 2,
    "unverifiedSceneNumbering": false,
    "id": 2
  },
  {
    "seriesId": 1,
    "tvdbId": 0,
    "episodeFileId": 3,
    "seasonNumber": 1,
    "episodeNumber": 3,
    "title": "Garply Episode Title",
    "airDate": "2020-06-05",
    "airDateUtc": "1970-03-31T00:00:00Z",
    "runtime": 22,
    "overview": "This is the Garply Episode Title overview.",
    "hasFile": true,
    "monitored": true,
    "absoluteEpisodeNumber": 3,
    "unverifiedSceneNumbering": false,
    "id": 3
  },
  {
    "seriesId": 1,
    "tvdbId": 0,
    "episodeFileId": 4,
    "seasonNumber": 1,
    "episodeNumber": 4,
    "title": "Waldo Episode Title",
    "airDate": "2020-06-05",
    "airDateUtc": "1970-03-31T00:00:00Z",
    "runtime": 22,
    "overview": "This is the Waldo Episode Title overview.",
    "hasFile": true,
    "monitored": true,
    "absoluteEpisodeNumber": 4,
    "unverifiedSceneNumbering": false,
    "id": 4
  },
  {
    "seriesId": 1,
    "tvdbId": 0,
    "episodeFileId": 5,
    "seasonNumber": 1,
    "episodeNumber": 5,
    "title": "Xyzzy Episode Title",
    "airDate": "2020-06-05",
    "airDateUtc": "1970-03-31T00:00:00Z",
    "runtime": 22,
    "overview": "This is the Xyzzy Episode Title overview.",
    "hasFile": false,
    "monitored": true,
    "absoluteEpisodeNumber": 5,
    "unverifiedSceneNumbering": false,
    "id": 5
  },
  {
    "seriesId": 1,
    "tvdbId": 0,
    "episodeFileId": 6,
    "seasonNumber": 1,
    "episodeNumber": 6,
    "title": "Fred Episode Title",
    "airDate": "2020-06-06",
    "airDateUtc": "1970-03-31T00:00:00Z",
    "runtime": 22,
    "overview": "This is the Fred Episode Title overview.",
    "hasFile": false,
    "monitored": true,
    "absoluteEpisodeNumber": 6,
    "unverifiedSceneNumbering": false,
    "id": 6
  },
  {
    "seriesId": 1,
    "tvdbId": 0,
    "episodeFileId": 7,
    "seasonNumber": 1,
    "episodeNumber": 7,
    "title": "Thud Episode Title",
    "airDate": "2020-06-06",
    "airDateUtc": "1970-03-31T00:00:00Z",
    "runtime": 22,
    "overview": "This is the Thud Episode Title overview.",
    "hasFile": true,
    "monitored": true,
    "absoluteEpisodeNumber": 7,
    "unverifiedSceneNumbering": false,
    "id": 7
  },
  {
    "seriesId": 1,
    "tvdbId": 0,
    "episodeFileId": 8,
    "seasonNumber": 1,
    "episodeNumber": 8,
    "title": "Quux Episode Title",
    "airDate": "2020-06-06",
    "airDateUtc": "1970-03-31T00:00:00Z",
    "runtime": 22,
    "overview": "This is the Quux Episode Title overview.",
    "hasFile": true,
    "monitored": true,
    "absoluteEpisodeNumber": 8,
    "unverifiedSceneNumbering": false,
    "id": 8
  }
]
